{
    "name": "BrendPart",
    "schema": [
        {
            "type": "tab",
            "label": "Brand Part",
            "sections": [
                {
                    "label": "Part1",
                    "settings": [
                        {
                            "type": "imageManager",
                            "id": "imageBox1",
                            "default": {
                                "src": "https://toronto-employmentlawyer.com/wp-content/uploads/2021/04/image-coming-soon-placeholder.png",
                                "alt": "Glasses",
                                "type": "IMAGE_MANAGER"
                            }
                        },
                        {
                            "type": "text",
                            "label": "Text part 1",
                            "id": "textPart1",
                            "typeMeta": {
                                "maxLength": 1000
                            }
                        }
                    ]
                },
                {
                    "label": "Part2",
                    "settings": [
                        {
                            "type": "imageManager",
                            "id": "imageBox2",
                            "default": {
                                "src": "https://toronto-employmentlawyer.com/wp-content/uploads/2021/04/image-coming-soon-placeholder.png",
                                "alt": "Sunglasses",
                                "type": "IMAGE_MANAGER"
                            }
                        },
                        {
                            "type": "text",
                            "label": "Text part 2",
                            "id": "textPart2",
                            "typeMeta": {
                                "maxLength": 1000
                            }
                        }
                    ]
                },
                {
                    "label": "Part3",
                    "settings": [
                        {
                            "type": "imageManager",
                            "id": "imageBox3",
                            "default": {
                                "src": "https://toronto-employmentlawyer.com/wp-content/uploads/2021/04/image-coming-soon-placeholder.png",
                                "alt": "Lenses",
                                "type": "IMAGE_MANAGER"
                            }
                        }
                    ]
                }
            ]
        }
    ],
    "template": "<div class='row-customs'><div class='colpadings'><div class='customs-brand'><div class='grid-brand'><div class='brand-box'><div class='brand-image' style='background-image: url({{imageBox1.src}});'><img src='{{imageBox1.src}}' alt='{{imageBox1.alt}}'><div class='brand-title'>Glasses</div></div><div class='brand-text_wrap'><p>{{textPart1}}</p><button class='butoon-brand'><a href='https://test6559.mybigcommerce.com/glasses/'>shop full collection</a></button></div></div><div class='brand-box'><div class='brand-image' style='background-image: url({{imageBox2.src}});'><img src='{{imageBox2.src}}' alt='{{imageBox2.alt}}'><div class='brand-title'>Sunglasses</div></div></div><div class='brand-box'><div class='brand-image' style='background-image: url({{imageBox3.src}});'><img src='{{imageBox3.src}}' alt='{{imageBox3.alt}}'></div></div><div class='brand-box'><div class='brand-text_wrap left-side'><h3>new <span class='title-gray'>Blue max</span><br>uv protect<br>glasses</h3><p>{{textPart2}}</p><button class='butoon-brand'><a href='https://test6559.mybigcommerce.com/lenses/'>shop full collection</a></button></div></div></div></div></div></div>"
}